BConv.sim/sim_1/behav/xsim/simulate.log
Time resolution is 1 ps
Test Case: time =                    0, clk = 1, A =       303379748, B = 281473912364672, M =               x
Test Case: time =                    2, clk = 0, A =       303379748, B = 281473912364672, M =               x
Test Case: time =                    4, clk = 1, A = 140735386277384, B = 140736148297314, M =      1367332517
Test Case: time =                    6, clk = 0, A = 140735386277384, B = 140736148297314, M =      1367332517
Test Case: time =                    8, clk = 1, A =       112818957, B =      1189058957, M = 140736756744103
Test Case: time =                   10, clk = 0, A =       112818957, B =      1189058957, M = 140736756744103
Test Case: time =                   12, clk = 1, A = 140736167052388, B = 140735470064145, M = 140736394551681
Test Case: time =                   14, clk = 0, A = 140736167052388, B = 140735470064145, M = 140736394551681
Test Case: time =                   16, clk = 1, A =        15983361, B =       114806029, M =       696988243
Test Case: time =                   18, clk = 0, A =        15983361, B =       114806029, M =       696988243
Test Case: time =                   20, clk = 1, A =       992211318, B =       512609597, M = 140737372755445
Test Case: time =                   22, clk = 0, A =       992211318, B =       512609597, M = 140737372755445
Test Case: time =                   24, clk = 1, A =      1993627629, B =      1177417612, M =       479601721
Test Case: time =                   26, clk = 0, A =      1993627629, B =      1177417612, M =       479601721
Test Case: time =                   28, clk = 1, A =      2097015289, B = 140736983934149, M =       816210017
Test Case: time =                   30, clk = 0, A =      2097015289, B = 140736983934149, M =       816210017
Test Case: time =                   32, clk = 1, A = 140737025246402, B = 140736792220327, M =      2622932277
Test Case: time =                   34, clk = 0, A = 140737025246402, B = 140736792220327, M =      2622932277
Test Case: time =                   36, clk = 1, A =      1924134885, B = 140736323416694, M =       233026075
Test Case: time =                   38, clk = 0, A =      1924134885, B = 140736323416694, M =       233026075
Test Case: time =                   40, clk = 1, A = 140735514859023, B =      1206705039, M =      3110176112
Test Case: time =                   42, clk = 0, A = 140735514859023, B =      1206705039, M =      3110176112
Test Case: time =                   44, clk = 1, A =      2033215986, B = 140737056380621, M = 140734308153984
Test Case: time =                   46, clk = 0, A =      2033215986, B = 140737056380621, M = 140734308153984
Test Case: time =                   48, clk = 1, A = 140737303182053, B = 140737014419138, M =      2485506854
Test Case: time =                   50, clk = 0, A = 140737303182053, B = 140737014419138, M =      2485506854
Test Case: time =                   52, clk = 1, A =       777537884, B = 140736908896444, M =       288762915
Test Case: time =                   54, clk = 0, A =       777537884, B = 140736908896444, M =       288762915
Test Case: time =                   56, clk = 1, A = 140735734569002, B = 140736204056162, M =      1375346849
Test Case: time =                   58, clk = 0, A = 140735734569002, B = 140736204056162, M =      1375346849
Test Case: time =                   60, clk = 1, A = 140736162390626, B =        91457290, M = 140737014411721
Test Case: time =                   62, clk = 0, A = 140736162390626, B =        91457290, M = 140737014411721
Test Case: time =                   64, clk = 1, A = 140736429499005, B =       274997536, M = 140736070933336
Test Case: time =                   66, clk = 0, A = 140736429499005, B =       274997536, M = 140736070933336
Test Case: time =                   68, clk = 1, A =      1433945514, B = 140736651775132, M = 140736154501469
Test Case: time =                   70, clk = 0, A =      1433945514, B = 140736651775132, M = 140736154501469
Test Case: time =                   72, clk = 1, A = 140736608747155, B = 140735507970064, M =      2281666831
Test Case: time =                   74, clk = 0, A = 140736608747155, B = 140735507970064, M =      2281666831
Test Case: time =                   76, clk = 1, A = 140735448496140, B = 140736034362962, M =      1100777091
Test Case: time =                   78, clk = 0, A = 140735448496140, B = 140736034362962, M =      1100777091
Test Case: time =                   80, clk = 1, A =       899669355, B = 140737135651538, M = 140736907862459
Test Case: time =                   82, clk = 0, A =       899669355, B = 140737135651538, M = 140736907862459
Test Case: time =                   84, clk = 1, A = 140735356553729, B = 140736803520173, M =      1250538138
Test Case: time =                   86, clk = 0, A = 140735356553729, B = 140736803520173, M =      1250538138
Test Case: time =                   88, clk = 1, A =       251652381, B = 140737085010636, M = 140736044010325
Test Case: time =                   90, clk = 0, A =       251652381, B = 140737085010636, M = 140736044010325
Test Case: time =                   92, clk = 1, A =       293882147, B =        84501770, M =       653948498
Test Case: time =                   94, clk = 0, A =       293882147, B =        84501770, M =       653948498
Test Case: time =                   96, clk = 1, A = 281474532313801, B = 281473336822843, M =       209380377
Test Case: time =                   98, clk = 0, A = 281474532313801, B = 281473336822843, M =       209380377
Test Case: time =                  100, clk = 1, A =      2036907506, B =      1160667530, M =      1195490958
Test Case: time =                  102, clk = 0, A =      2036907506, B =      1160667530, M =      1195490958
Test Case: time =                  104, clk = 1, A =       549761857, B = 281474655925463, M =       876239976
Test Case: time =                  106, clk = 0, A =       549761857, B = 281474655925463, M =       876239976
Test Case: time =                  108, clk = 1, A =      1008792440, B = 281473993282184, M =       860716651
Test Case: time =                  110, clk = 0, A =      1008792440, B = 281473993282184, M =       860716651
Test Case: time =                  112, clk = 1, A =      1975848427, B =      1526883766, M =      1978065137
Test Case: time =                  114, clk = 0, A =      1975848427, B =      1526883766, M =      1978065137
Test Case: time =                  116, clk = 1, A =      1665923526, B =      1460999086, M =       448964661
Test Case: time =                  118, clk = 0, A =      1665923526, B =      1460999086, M =       448964661
Test Case: time =                  120, clk = 1, A = 281474435187387, B =       353361194, M =       204924440
Test Case: time =                  122, clk = 0, A = 281474435187387, B =       353361194, M =       204924440
Test Case: time =                  124, clk = 1, A = 281472951491082, B = 281473802944112, M = 281474081826193
Test Case: time =                  126, clk = 0, A = 281472951491082, B = 281473802944112, M = 281474081826193
$finish called at time : 128 ns : File "/home/moginh/Projects/BConv/BConv.srcs/sim_1/new/ModSub_tb.v" Line 123
